digital_logic_tuts/intro/simulation/qsim/light.msim.vcd
$comment
	File created using the following command:
		vcd file light.msim.vcd -direction
$end
$date
	Sat Jul 01 22:27:08 2017
$end
$version
	ModelSim Version 10.5b
$end
$timescale
	1ps
$end

$scope module light_vlg_vec_tst $end
$var reg 1 ! x1 $end
$var reg 1 " x2 $end
$var wire 1 # f $end

$scope module i1 $end
$var wire 1 $ gnd $end
$var wire 1 % vcc $end
$var wire 1 & unknown $end
$var tri1 1 ' devclrn $end
$var tri1 1 ( devpor $end
$var tri1 1 ) devoe $end
$var wire 1 * f~output_o $end
$var wire 1 + x2~input_o $end
$var wire 1 , x1~input_o $end
$var wire 1 - f~0_combout $end
$upscope $end
$upscope $end
$enddefinitions $end
#0
$dumpvars
0!
0"
x#
0$
1%
x&
1'
1(
1)
x*
0+
0,
x-
$end
#1010
0-
#4949
0*
0#
#50000
1"
#50766
1+
#51707
1-
#55734
1*
1#
#100000
1!
0"
#100766
1,
#100812
0+
#101308
0-
#101821
1-
#150000
1"
#150766
1+
#151708
0-
#155647
0*
0#
