digital_logic_tuts/simulation/simulation/qsim/majority3.msim.vcd
$comment
	File created using the following command:
		vcd file majority3.msim.vcd -direction
$end
$date
	Tue Jul 04 11:08:17 2017
$end
$version
	ModelSim Version 10.5b
$end
$timescale
	1ps
$end

$scope module majority3_vlg_vec_tst $end
$var reg 1 ! x1 $end
$var reg 1 " x2 $end
$var reg 1 # x3 $end
$var wire 1 $ f $end

$scope module i1 $end
$var wire 1 % gnd $end
$var wire 1 & vcc $end
$var wire 1 ' unknown $end
$var tri1 1 ( devclrn $end
$var tri1 1 ) devpor $end
$var tri1 1 * devoe $end
$var wire 1 + f~output_o $end
$var wire 1 , x1~input_o $end
$var wire 1 - x2~input_o $end
$var wire 1 . x3~input_o $end
$var wire 1 / f~0_combout $end
$upscope $end
$upscope $end
$enddefinitions $end
#0
$dumpvars
0!
0"
0#
x$
0%
1&
x'
1(
1)
1*
x+
0,
0-
0.
x/
$end
#4338
0/
#7883
0+
0$
#100000
1#
#100766
1.
#200000
0#
#200812
0.
#220000
1"
#220766
1-
#300000
1#
#300766
1.
#304785
1/
#308394
1+
1$
#400000
0#
#400812
0.
#404962
0/
#408507
0+
0$
#420000
1!
0"
#420766
1,
#420812
0-
#500000
1#
#500766
1.
#504785
1/
#508394
1+
1$
#600000
0#
#600812
0.
#604962
0/
#608507
0+
0$
#640000
1"
#640766
1-
#644954
1/
#648563
1+
1$
#700000
1#
#700766
1.
